Projects/P2/pipeline/bonus_output.txt
Time resolution is 1 ps
Time:          0, CLK = 0, PC = xxxxxxxx, 
 [$s0] = 00000000, [$s1] = 00000000, [$s2] = 00000000, 
 [$s3] = 00000000, [$s4] = 00000000, [$s5] = 00000000, 
 [$s6] = 00000000, [$s7] = 00000000, [$t0] = 00000000, 
 [$t1] = 00000000, [$t2] = 00000000, [$t3] = 00000000, 
 [$t4] = 00000000, [$t5] = 00000000, [$t6] = 00000000, 
 [$t7] = 00000000, [$t8] = 00000000, [$t9] = 00000000 

Time:         50, CLK = 1, PC = 00000000, 
 [$s0] = 00000000, [$s1] = 00000000, [$s2] = 00000000, 
 [$s3] = 00000000, [$s4] = 00000000, [$s5] = 00000000, 
 [$s6] = 00000000, [$s7] = 00000000, [$t0] = 00000000, 
 [$t1] = 00000000, [$t2] = 00000000, [$t3] = 00000000, 
 [$t4] = 00000000, [$t5] = 00000000, [$t6] = 00000000, 
 [$t7] = 00000000, [$t8] = 00000000, [$t9] = 00000000 

Time:        100, CLK = 0, PC = 00000000, 
 [$s0] = 00000000, [$s1] = 00000000, [$s2] = 00000000, 
 [$s3] = 00000000, [$s4] = 00000000, [$s5] = 00000000, 
 [$s6] = 00000000, [$s7] = 00000000, [$t0] = 00000000, 
 [$t1] = 00000000, [$t2] = 00000000, [$t3] = 00000000, 
 [$t4] = 00000000, [$t5] = 00000000, [$t6] = 00000000, 
 [$t7] = 00000000, [$t8] = 00000000, [$t9] = 00000000 

Time:        150, CLK = 1, PC = 00000004, 
 [$s0] = 00000000, [$s1] = 00000000, [$s2] = 00000000, 
 [$s3] = 00000000, [$s4] = 00000000, [$s5] = 00000000, 
 [$s6] = 00000000, [$s7] = 00000000, [$t0] = 00000000, 
 [$t1] = 00000000, [$t2] = 00000000, [$t3] = 00000000, 
 [$t4] = 00000000, [$t5] = 00000000, [$t6] = 00000000, 
 [$t7] = 00000000, [$t8] = 00000000, [$t9] = 00000000 

Time:        200, CLK = 0, PC = 00000004, 
 [$s0] = 00000000, [$s1] = 00000000, [$s2] = 00000000, 
 [$s3] = 00000000, [$s4] = 00000000, [$s5] = 00000000, 
 [$s6] = 00000000, [$s7] = 00000000, [$t0] = 00000000, 
 [$t1] = 00000000, [$t2] = 00000000, [$t3] = 00000000, 
 [$t4] = 00000000, [$t5] = 00000000, [$t6] = 00000000, 
 [$t7] = 00000000, [$t8] = 00000000, [$t9] = 00000000 

Time:        250, CLK = 1, PC = 00000008, 
 [$s0] = 00000000, [$s1] = 00000000, [$s2] = 00000000, 
 [$s3] = 00000000, [$s4] = 00000000, [$s5] = 00000000, 
 [$s6] = 00000000, [$s7] = 00000000, [$t0] = 00000000, 
 [$t1] = 00000000, [$t2] = 00000000, [$t3] = 00000000, 
 [$t4] = 00000000, [$t5] = 00000000, [$t6] = 00000000, 
 [$t7] = 00000000, [$t8] = 00000000, [$t9] = 00000000 

Time:        300, CLK = 0, PC = 00000008, 
 [$s0] = 00000000, [$s1] = 00000000, [$s2] = 00000000, 
 [$s3] = 00000000, [$s4] = 00000000, [$s5] = 00000000, 
 [$s6] = 00000000, [$s7] = 00000000, [$t0] = 00000000, 
 [$t1] = 00000000, [$t2] = 00000000, [$t3] = 00000000, 
 [$t4] = 00000000, [$t5] = 00000000, [$t6] = 00000000, 
 [$t7] = 00000000, [$t8] = 00000000, [$t9] = 00000000 

Time:        350, CLK = 1, PC = 0000000c, 
 [$s0] = 00000000, [$s1] = 00000000, [$s2] = 00000000, 
 [$s3] = 00000000, [$s4] = 00000000, [$s5] = 00000000, 
 [$s6] = 00000000, [$s7] = 00000000, [$t0] = 00000000, 
 [$t1] = 00000000, [$t2] = 00000000, [$t3] = 00000000, 
 [$t4] = 00000000, [$t5] = 00000000, [$t6] = 00000000, 
 [$t7] = 00000000, [$t8] = 00000000, [$t9] = 00000000 

Time:        400, CLK = 0, PC = 0000000c, 
 [$s0] = 00000000, [$s1] = 00000000, [$s2] = 00000000, 
 [$s3] = 00000000, [$s4] = 00000000, [$s5] = 00000000, 
 [$s6] = 00000000, [$s7] = 00000000, [$t0] = 00000000, 
 [$t1] = 00000000, [$t2] = 00000000, [$t3] = 00000000, 
 [$t4] = 00000000, [$t5] = 00000000, [$t6] = 00000000, 
 [$t7] = 00000000, [$t8] = 00000000, [$t9] = 00000000 

Time:        450, CLK = 1, PC = 00000010, 
 [$s0] = 00000000, [$s1] = 00000000, [$s2] = 00000000, 
 [$s3] = 00000000, [$s4] = 00000000, [$s5] = 00000000, 
 [$s6] = 00000000, [$s7] = 00000000, [$t0] = 00000020, 
 [$t1] = 00000000, [$t2] = 00000000, [$t3] = 00000000, 
 [$t4] = 00000000, [$t5] = 00000000, [$t6] = 00000000, 
 [$t7] = 00000000, [$t8] = 00000000, [$t9] = 00000000 

Time:        500, CLK = 0, PC = 00000010, 
 [$s0] = 00000000, [$s1] = 00000000, [$s2] = 00000000, 
 [$s3] = 00000000, [$s4] = 00000000, [$s5] = 00000000, 
 [$s6] = 00000000, [$s7] = 00000000, [$t0] = 00000020, 
 [$t1] = 00000000, [$t2] = 00000000, [$t3] = 00000000, 
 [$t4] = 00000000, [$t5] = 00000000, [$t6] = 00000000, 
 [$t7] = 00000000, [$t8] = 00000000, [$t9] = 00000000 

Time:        550, CLK = 1, PC = 00000014, 
 [$s0] = 00000000, [$s1] = 00000000, [$s2] = 00000000, 
 [$s3] = 00000000, [$s4] = 00000000, [$s5] = 00000000, 
 [$s6] = 00000000, [$s7] = 00000000, [$t0] = 00000020, 
 [$t1] = 00000037, [$t2] = 00000000, [$t3] = 00000000, 
 [$t4] = 00000000, [$t5] = 00000000, [$t6] = 00000000, 
 [$t7] = 00000000, [$t8] = 00000000, [$t9] = 00000000 

Time:        600, CLK = 0, PC = 00000014, 
 [$s0] = 00000000, [$s1] = 00000000, [$s2] = 00000000, 
 [$s3] = 00000000, [$s4] = 00000000, [$s5] = 00000000, 
 [$s6] = 00000000, [$s7] = 00000000, [$t0] = 00000020, 
 [$t1] = 00000037, [$t2] = 00000000, [$t3] = 00000000, 
 [$t4] = 00000000, [$t5] = 00000000, [$t6] = 00000000, 
 [$t7] = 00000000, [$t8] = 00000000, [$t9] = 00000000 

Time:        650, CLK = 1, PC = 00000018, 
 [$s0] = 00000020, [$s1] = 00000000, [$s2] = 00000000, 
 [$s3] = 00000000, [$s4] = 00000000, [$s5] = 00000000, 
 [$s6] = 00000000, [$s7] = 00000000, [$t0] = 00000020, 
 [$t1] = 00000037, [$t2] = 00000000, [$t3] = 00000000, 
 [$t4] = 00000000, [$t5] = 00000000, [$t6] = 00000000, 
 [$t7] = 00000000, [$t8] = 00000000, [$t9] = 00000000 

Time:        700, CLK = 0, PC = 00000018, 
 [$s0] = 00000020, [$s1] = 00000000, [$s2] = 00000000, 
 [$s3] = 00000000, [$s4] = 00000000, [$s5] = 00000000, 
 [$s6] = 00000000, [$s7] = 00000000, [$t0] = 00000020, 
 [$t1] = 00000037, [$t2] = 00000000, [$t3] = 00000000, 
 [$t4] = 00000000, [$t5] = 00000000, [$t6] = 00000000, 
 [$t7] = 00000000, [$t8] = 00000000, [$t9] = 00000000 

Time:        750, CLK = 1, PC = 0000001c, 
 [$s0] = 00000037, [$s1] = 00000000, [$s2] = 00000000, 
 [$s3] = 00000000, [$s4] = 00000000, [$s5] = 00000000, 
 [$s6] = 00000000, [$s7] = 00000000, [$t0] = 00000020, 
 [$t1] = 00000037, [$t2] = 00000000, [$t3] = 00000000, 
 [$t4] = 00000000, [$t5] = 00000000, [$t6] = 00000000, 
 [$t7] = 00000000, [$t8] = 00000000, [$t9] = 00000000 

Time:        800, CLK = 0, PC = 0000001c, 
 [$s0] = 00000037, [$s1] = 00000000, [$s2] = 00000000, 
 [$s3] = 00000000, [$s4] = 00000000, [$s5] = 00000000, 
 [$s6] = 00000000, [$s7] = 00000000, [$t0] = 00000020, 
 [$t1] = 00000037, [$t2] = 00000000, [$t3] = 00000000, 
 [$t4] = 00000000, [$t5] = 00000000, [$t6] = 00000000, 
 [$t7] = 00000000, [$t8] = 00000000, [$t9] = 00000000 

Time:        850, CLK = 1, PC = 00000020, 
 [$s0] = 00000037, [$s1] = 00000000, [$s2] = 00000000, 
 [$s3] = 00000000, [$s4] = 00000000, [$s5] = 00000000, 
 [$s6] = 00000000, [$s7] = 00000000, [$t0] = 00000020, 
 [$t1] = 00000037, [$t2] = 00000000, [$t3] = 00000000, 
 [$t4] = 00000000, [$t5] = 00000000, [$t6] = 00000000, 
 [$t7] = 00000000, [$t8] = 00000000, [$t9] = 00000000 

Time:        900, CLK = 0, PC = 00000020, 
 [$s0] = 00000037, [$s1] = 00000000, [$s2] = 00000000, 
 [$s3] = 00000000, [$s4] = 00000000, [$s5] = 00000000, 
 [$s6] = 00000000, [$s7] = 00000000, [$t0] = 00000020, 
 [$t1] = 00000037, [$t2] = 00000000, [$t3] = 00000000, 
 [$t4] = 00000000, [$t5] = 00000000, [$t6] = 00000000, 
 [$t7] = 00000000, [$t8] = 00000000, [$t9] = 00000000 

Time:        950, CLK = 1, PC = 00000024, 
 [$s0] = 00000037, [$s1] = 00000000, [$s2] = 00000000, 
 [$s3] = 00000000, [$s4] = 00000000, [$s5] = 00000000, 
 [$s6] = 00000000, [$s7] = 00000000, [$t0] = 00000020, 
 [$t1] = 00000037, [$t2] = 00000000, [$t3] = 00000000, 
 [$t4] = 00000000, [$t5] = 00000000, [$t6] = 00000000, 
 [$t7] = 00000000, [$t8] = 00000000, [$t9] = 00000000 

Time:       1000, CLK = 0, PC = 00000024, 
 [$s0] = 00000037, [$s1] = 00000000, [$s2] = 00000000, 
 [$s3] = 00000000, [$s4] = 00000000, [$s5] = 00000000, 
 [$s6] = 00000000, [$s7] = 00000000, [$t0] = 00000020, 
 [$t1] = 00000037, [$t2] = 00000000, [$t3] = 00000000, 
 [$t4] = 00000000, [$t5] = 00000000, [$t6] = 00000000, 
 [$t7] = 00000000, [$t8] = 00000000, [$t9] = 00000000 

Time:       1050, CLK = 1, PC = 00000024, 
 [$s0] = 00000037, [$s1] = 00000057, [$s2] = 00000000, 
 [$s3] = 00000000, [$s4] = 00000000, [$s5] = 00000000, 
 [$s6] = 00000000, [$s7] = 00000000, [$t0] = 00000020, 
 [$t1] = 00000037, [$t2] = 00000000, [$t3] = 00000000, 
 [$t4] = 00000000, [$t5] = 00000000, [$t6] = 00000000, 
 [$t7] = 00000000, [$t8] = 00000000, [$t9] = 00000000 

Time:       1100, CLK = 0, PC = 00000024, 
 [$s0] = 00000037, [$s1] = 00000057, [$s2] = 00000000, 
 [$s3] = 00000000, [$s4] = 00000000, [$s5] = 00000000, 
 [$s6] = 00000000, [$s7] = 00000000, [$t0] = 00000020, 
 [$t1] = 00000037, [$t2] = 00000000, [$t3] = 00000000, 
 [$t4] = 00000000, [$t5] = 00000000, [$t6] = 00000000, 
 [$t7] = 00000000, [$t8] = 00000000, [$t9] = 00000000 

Time:       1150, CLK = 1, PC = 00000028, 
 [$s0] = 00000037, [$s1] = 00000057, [$s2] = ffffffe9, 
 [$s3] = 00000000, [$s4] = 00000000, [$s5] = 00000000, 
 [$s6] = 00000000, [$s7] = 00000000, [$t0] = 00000020, 
 [$t1] = 00000037, [$t2] = 00000000, [$t3] = 00000000, 
 [$t4] = 00000000, [$t5] = 00000000, [$t6] = 00000000, 
 [$t7] = 00000000, [$t8] = 00000000, [$t9] = 00000000 

Time:       1200, CLK = 0, PC = 00000028, 
 [$s0] = 00000037, [$s1] = 00000057, [$s2] = ffffffe9, 
 [$s3] = 00000000, [$s4] = 00000000, [$s5] = 00000000, 
 [$s6] = 00000000, [$s7] = 00000000, [$t0] = 00000020, 
 [$t1] = 00000037, [$t2] = 00000000, [$t3] = 00000000, 
 [$t4] = 00000000, [$t5] = 00000000, [$t6] = 00000000, 
 [$t7] = 00000000, [$t8] = 00000000, [$t9] = 00000000 

Time:       1250, CLK = 1, PC = 0000002c, 
 [$s0] = 00000037, [$s1] = 00000057, [$s2] = ffffffe9, 
 [$s3] = 00000000, [$s4] = 00000000, [$s5] = 00000000, 
 [$s6] = 00000000, [$s7] = 00000000, [$t0] = 00000020, 
 [$t1] = 00000037, [$t2] = 00000000, [$t3] = 00000000, 
 [$t4] = 00000000, [$t5] = 00000000, [$t6] = 00000000, 
 [$t7] = 00000000, [$t8] = 00000000, [$t9] = 00000000 

Time:       1300, CLK = 0, PC = 0000002c, 
 [$s0] = 00000037, [$s1] = 00000057, [$s2] = ffffffe9, 
 [$s3] = 00000000, [$s4] = 00000000, [$s5] = 00000000, 
 [$s6] = 00000000, [$s7] = 00000000, [$t0] = 00000020, 
 [$t1] = 00000037, [$t2] = 00000000, [$t3] = 00000000, 
 [$t4] = 00000000, [$t5] = 00000000, [$t6] = 00000000, 
 [$t7] = 00000000, [$t8] = 00000000, [$t9] = 00000000 

Time:       1350, CLK = 1, PC = 0000002c, 
 [$s0] = 00000037, [$s1] = 00000057, [$s2] = ffffffe9, 
 [$s3] = 00000000, [$s4] = 00000000, [$s5] = 00000000, 
 [$s6] = 00000000, [$s7] = 00000000, [$t0] = 00000020, 
 [$t1] = 00000037, [$t2] = 00000000, [$t3] = 00000000, 
 [$t4] = 00000000, [$t5] = 00000000, [$t6] = 00000000, 
 [$t7] = 00000000, [$t8] = 00000000, [$t9] = 00000000 

Time:       1400, CLK = 0, PC = 0000002c, 
 [$s0] = 00000037, [$s1] = 00000057, [$s2] = ffffffe9, 
 [$s3] = 00000000, [$s4] = 00000000, [$s5] = 00000000, 
 [$s6] = 00000000, [$s7] = 00000000, [$t0] = 00000020, 
 [$t1] = 00000037, [$t2] = 00000000, [$t3] = 00000000, 
 [$t4] = 00000000, [$t5] = 00000000, [$t6] = 00000000, 
 [$t7] = 00000000, [$t8] = 00000000, [$t9] = 00000000 

Time:       1450, CLK = 1, PC = 00000030, 
 [$s0] = 00000037, [$s1] = 00000037, [$s2] = ffffffe9, 
 [$s3] = 00000000, [$s4] = 00000000, [$s5] = 00000000, 
 [$s6] = 00000000, [$s7] = 00000000, [$t0] = 00000020, 
 [$t1] = 00000037, [$t2] = 00000000, [$t3] = 00000000, 
 [$t4] = 00000000, [$t5] = 00000000, [$t6] = 00000000, 
 [$t7] = 00000000, [$t8] = 00000000, [$t9] = 00000000 

Time:       1500, CLK = 0, PC = 00000030, 
 [$s0] = 00000037, [$s1] = 00000037, [$s2] = ffffffe9, 
 [$s3] = 00000000, [$s4] = 00000000, [$s5] = 00000000, 
 [$s6] = 00000000, [$s7] = 00000000, [$t0] = 00000020, 
 [$t1] = 00000037, [$t2] = 00000000, [$t3] = 00000000, 
 [$t4] = 00000000, [$t5] = 00000000, [$t6] = 00000000, 
 [$t7] = 00000000, [$t8] = 00000000, [$t9] = 00000000 

Time:       1550, CLK = 1, PC = 00000030, 
 [$s0] = 00000037, [$s1] = 00000037, [$s2] = ffffffe9, 
 [$s3] = 00000000, [$s4] = 00000000, [$s5] = 00000000, 
 [$s6] = 00000000, [$s7] = 00000000, [$t0] = 00000020, 
 [$t1] = 00000037, [$t2] = 00000000, [$t3] = 00000000, 
 [$t4] = 00000000, [$t5] = 00000000, [$t6] = 00000000, 
 [$t7] = 00000000, [$t8] = 00000000, [$t9] = 00000000 

Time:       1600, CLK = 0, PC = 00000030, 
 [$s0] = 00000037, [$s1] = 00000037, [$s2] = ffffffe9, 
 [$s3] = 00000000, [$s4] = 00000000, [$s5] = 00000000, 
 [$s6] = 00000000, [$s7] = 00000000, [$t0] = 00000020, 
 [$t1] = 00000037, [$t2] = 00000000, [$t3] = 00000000, 
 [$t4] = 00000000, [$t5] = 00000000, [$t6] = 00000000, 
 [$t7] = 00000000, [$t8] = 00000000, [$t9] = 00000000 

Time:       1650, CLK = 1, PC = 00000034, 
 [$s0] = 00000037, [$s1] = 00000037, [$s2] = 00000000, 
 [$s3] = 00000000, [$s4] = 00000000, [$s5] = 00000000, 
 [$s6] = 00000000, [$s7] = 00000000, [$t0] = 00000020, 
 [$t1] = 00000037, [$t2] = 00000000, [$t3] = 00000000, 
 [$t4] = 00000000, [$t5] = 00000000, [$t6] = 00000000, 
 [$t7] = 00000000, [$t8] = 00000000, [$t9] = 00000000 

Time:       1700, CLK = 0, PC = 00000034, 
 [$s0] = 00000037, [$s1] = 00000037, [$s2] = 00000000, 
 [$s3] = 00000000, [$s4] = 00000000, [$s5] = 00000000, 
 [$s6] = 00000000, [$s7] = 00000000, [$t0] = 00000020, 
 [$t1] = 00000037, [$t2] = 00000000, [$t3] = 00000000, 
 [$t4] = 00000000, [$t5] = 00000000, [$t6] = 00000000, 
 [$t7] = 00000000, [$t8] = 00000000, [$t9] = 00000000 

Time:       1750, CLK = 1, PC = 00000038, 
 [$s0] = 00000037, [$s1] = 00000037, [$s2] = 00000000, 
 [$s3] = 00000000, [$s4] = 00000000, [$s5] = 00000000, 
 [$s6] = 00000000, [$s7] = 00000000, [$t0] = 00000020, 
 [$t1] = 00000037, [$t2] = 00000000, [$t3] = 00000000, 
 [$t4] = 00000000, [$t5] = 00000000, [$t6] = 00000000, 
 [$t7] = 00000000, [$t8] = 00000000, [$t9] = 00000000 

Time:       1800, CLK = 0, PC = 00000038, 
 [$s0] = 00000037, [$s1] = 00000037, [$s2] = 00000000, 
 [$s3] = 00000000, [$s4] = 00000000, [$s5] = 00000000, 
 [$s6] = 00000000, [$s7] = 00000000, [$t0] = 00000020, 
 [$t1] = 00000037, [$t2] = 00000000, [$t3] = 00000000, 
 [$t4] = 00000000, [$t5] = 00000000, [$t6] = 00000000, 
 [$t7] = 00000000, [$t8] = 00000000, [$t9] = 00000000 

Time:       1850, CLK = 1, PC = 00000038, 
 [$s0] = 00000037, [$s1] = 00000037, [$s2] = 00000000, 
 [$s3] = 00000000, [$s4] = 00000000, [$s5] = 00000000, 
 [$s6] = 00000000, [$s7] = 00000000, [$t0] = 00000020, 
 [$t1] = 00000037, [$t2] = 00000000, [$t3] = 00000000, 
 [$t4] = 00000000, [$t5] = 00000000, [$t6] = 00000000, 
 [$t7] = 00000000, [$t8] = 00000000, [$t9] = 00000000 

Time:       1900, CLK = 0, PC = 00000038, 
 [$s0] = 00000037, [$s1] = 00000037, [$s2] = 00000000, 
 [$s3] = 00000000, [$s4] = 00000000, [$s5] = 00000000, 
 [$s6] = 00000000, [$s7] = 00000000, [$t0] = 00000020, 
 [$t1] = 00000037, [$t2] = 00000000, [$t3] = 00000000, 
 [$t4] = 00000000, [$t5] = 00000000, [$t6] = 00000000, 
 [$t7] = 00000000, [$t8] = 00000000, [$t9] = 00000000 

Time:       1950, CLK = 1, PC = 00000038, 
 [$s0] = 00000037, [$s1] = 00000037, [$s2] = 00000000, 
 [$s3] = 00000020, [$s4] = 00000000, [$s5] = 00000000, 
 [$s6] = 00000000, [$s7] = 00000000, [$t0] = 00000020, 
 [$t1] = 00000037, [$t2] = 00000000, [$t3] = 00000000, 
 [$t4] = 00000000, [$t5] = 00000000, [$t6] = 00000000, 
 [$t7] = 00000000, [$t8] = 00000000, [$t9] = 00000000 

Time:       2000, CLK = 0, PC = 00000038, 
 [$s0] = 00000037, [$s1] = 00000037, [$s2] = 00000000, 
 [$s3] = 00000020, [$s4] = 00000000, [$s5] = 00000000, 
 [$s6] = 00000000, [$s7] = 00000000, [$t0] = 00000020, 
 [$t1] = 00000037, [$t2] = 00000000, [$t3] = 00000000, 
 [$t4] = 00000000, [$t5] = 00000000, [$t6] = 00000000, 
 [$t7] = 00000000, [$t8] = 00000000, [$t9] = 00000000 

run 1000 ns
Time:       2050, CLK = 1, PC = 0000003c, 
 [$s0] = 00000037, [$s1] = 00000037, [$s2] = 00000000, 
 [$s3] = 00000020, [$s4] = 00000000, [$s5] = 00000000, 
 [$s6] = 00000000, [$s7] = 00000000, [$t0] = 00000020, 
 [$t1] = 00000037, [$t2] = 00000000, [$t3] = 00000000, 
 [$t4] = 00000000, [$t5] = 00000000, [$t6] = 00000000, 
 [$t7] = 00000000, [$t8] = 00000000, [$t9] = 00000000 

Time:       2100, CLK = 0, PC = 0000003c, 
 [$s0] = 00000037, [$s1] = 00000037, [$s2] = 00000000, 
 [$s3] = 00000020, [$s4] = 00000000, [$s5] = 00000000, 
 [$s6] = 00000000, [$s7] = 00000000, [$t0] = 00000020, 
 [$t1] = 00000037, [$t2] = 00000000, [$t3] = 00000000, 
 [$t4] = 00000000, [$t5] = 00000000, [$t6] = 00000000, 
 [$t7] = 00000000, [$t8] = 00000000, [$t9] = 00000000 

Time:       2150, CLK = 1, PC = 00000040, 
 [$s0] = 00000037, [$s1] = 00000037, [$s2] = 00000000, 
 [$s3] = 00000020, [$s4] = 00000000, [$s5] = 00000000, 
 [$s6] = 00000000, [$s7] = 00000000, [$t0] = 00000020, 
 [$t1] = 00000037, [$t2] = 00000000, [$t3] = 00000000, 
 [$t4] = 00000000, [$t5] = 00000000, [$t6] = 00000000, 
 [$t7] = 00000000, [$t8] = 00000000, [$t9] = 00000000 

Time:       2200, CLK = 0, PC = 00000040, 
 [$s0] = 00000037, [$s1] = 00000037, [$s2] = 00000000, 
 [$s3] = 00000020, [$s4] = 00000000, [$s5] = 00000000, 
 [$s6] = 00000000, [$s7] = 00000000, [$t0] = 00000020, 
 [$t1] = 00000037, [$t2] = 00000000, [$t3] = 00000000, 
 [$t4] = 00000000, [$t5] = 00000000, [$t6] = 00000000, 
 [$t7] = 00000000, [$t8] = 00000000, [$t9] = 00000000 

Time:       2250, CLK = 1, PC = 00000040, 
 [$s0] = 00000037, [$s1] = 00000037, [$s2] = 00000000, 
 [$s3] = 00000020, [$s4] = 00000000, [$s5] = 00000000, 
 [$s6] = 00000000, [$s7] = 00000000, [$t0] = 00000020, 
 [$t1] = 00000037, [$t2] = 00000000, [$t3] = 00000000, 
 [$t4] = 00000000, [$t5] = 00000000, [$t6] = 00000000, 
 [$t7] = 00000000, [$t8] = 00000000, [$t9] = 00000000 

Time:       2300, CLK = 0, PC = 00000040, 
 [$s0] = 00000037, [$s1] = 00000037, [$s2] = 00000000, 
 [$s3] = 00000020, [$s4] = 00000000, [$s5] = 00000000, 
 [$s6] = 00000000, [$s7] = 00000000, [$t0] = 00000020, 
 [$t1] = 00000037, [$t2] = 00000000, [$t3] = 00000000, 
 [$t4] = 00000000, [$t5] = 00000000, [$t6] = 00000000, 
 [$t7] = 00000000, [$t8] = 00000000, [$t9] = 00000000 

Time:       2350, CLK = 1, PC = 00000044, 
 [$s0] = 00000037, [$s1] = 00000037, [$s2] = 00000000, 
 [$s3] = 00000020, [$s4] = 00000001, [$s5] = 00000000, 
 [$s6] = 00000000, [$s7] = 00000000, [$t0] = 00000020, 
 [$t1] = 00000037, [$t2] = 00000000, [$t3] = 00000000, 
 [$t4] = 00000000, [$t5] = 00000000, [$t6] = 00000000, 
 [$t7] = 00000000, [$t8] = 00000000, [$t9] = 00000000 

Time:       2400, CLK = 0, PC = 00000044, 
 [$s0] = 00000037, [$s1] = 00000037, [$s2] = 00000000, 
 [$s3] = 00000020, [$s4] = 00000001, [$s5] = 00000000, 
 [$s6] = 00000000, [$s7] = 00000000, [$t0] = 00000020, 
 [$t1] = 00000037, [$t2] = 00000000, [$t3] = 00000000, 
 [$t4] = 00000000, [$t5] = 00000000, [$t6] = 00000000, 
 [$t7] = 00000000, [$t8] = 00000000, [$t9] = 00000000 

Time:       2450, CLK = 1, PC = 00000048, 
 [$s0] = 00000037, [$s1] = 00000037, [$s2] = 00000000, 
 [$s3] = 00000020, [$s4] = 00000001, [$s5] = 00000000, 
 [$s6] = 00000000, [$s7] = 00000000, [$t0] = 00000020, 
 [$t1] = 00000037, [$t2] = 00000000, [$t3] = 00000000, 
 [$t4] = 00000000, [$t5] = 00000000, [$t6] = 00000000, 
 [$t7] = 00000000, [$t8] = 00000000, [$t9] = 00000000 

Time:       2500, CLK = 0, PC = 00000048, 
 [$s0] = 00000037, [$s1] = 00000037, [$s2] = 00000000, 
 [$s3] = 00000020, [$s4] = 00000001, [$s5] = 00000000, 
 [$s6] = 00000000, [$s7] = 00000000, [$t0] = 00000020, 
 [$t1] = 00000037, [$t2] = 00000000, [$t3] = 00000000, 
 [$t4] = 00000000, [$t5] = 00000000, [$t6] = 00000000, 
 [$t7] = 00000000, [$t8] = 00000000, [$t9] = 00000000 

Time:       2550, CLK = 1, PC = 00000038, 
 [$s0] = 00000037, [$s1] = 00000037, [$s2] = 00000000, 
 [$s3] = 00000020, [$s4] = 00000001, [$s5] = 00000000, 
 [$s6] = 00000000, [$s7] = 00000000, [$t0] = 00000020, 
 [$t1] = 00000037, [$t2] = 00000000, [$t3] = 00000000, 
 [$t4] = 00000000, [$t5] = 00000000, [$t6] = 00000000, 
 [$t7] = 00000000, [$t8] = 00000000, [$t9] = 00000000 

Time:       2600, CLK = 0, PC = 00000038, 
 [$s0] = 00000037, [$s1] = 00000037, [$s2] = 00000000, 
 [$s3] = 00000020, [$s4] = 00000001, [$s5] = 00000000, 
 [$s6] = 00000000, [$s7] = 00000000, [$t0] = 00000020, 
 [$t1] = 00000037, [$t2] = 00000000, [$t3] = 00000000, 
 [$t4] = 00000000, [$t5] = 00000000, [$t6] = 00000000, 
 [$t7] = 00000000, [$t8] = 00000000, [$t9] = 00000000 

Time:       2650, CLK = 1, PC = 0000003c, 
 [$s0] = 00000037, [$s1] = 00000037, [$s2] = 00000037, 
 [$s3] = 00000020, [$s4] = 00000001, [$s5] = 00000000, 
 [$s6] = 00000000, [$s7] = 00000000, [$t0] = 00000020, 
 [$t1] = 00000037, [$t2] = 00000000, [$t3] = 00000000, 
 [$t4] = 00000000, [$t5] = 00000000, [$t6] = 00000000, 
 [$t7] = 00000000, [$t8] = 00000000, [$t9] = 00000000 

Time:       2700, CLK = 0, PC = 0000003c, 
 [$s0] = 00000037, [$s1] = 00000037, [$s2] = 00000037, 
 [$s3] = 00000020, [$s4] = 00000001, [$s5] = 00000000, 
 [$s6] = 00000000, [$s7] = 00000000, [$t0] = 00000020, 
 [$t1] = 00000037, [$t2] = 00000000, [$t3] = 00000000, 
 [$t4] = 00000000, [$t5] = 00000000, [$t6] = 00000000, 
 [$t7] = 00000000, [$t8] = 00000000, [$t9] = 00000000 

Time:       2750, CLK = 1, PC = 00000040, 
 [$s0] = 00000037, [$s1] = 00000037, [$s2] = 00000037, 
 [$s3] = 00000020, [$s4] = 00000001, [$s5] = 00000000, 
 [$s6] = 00000000, [$s7] = 00000000, [$t0] = 00000020, 
 [$t1] = 00000037, [$t2] = 00000000, [$t3] = 00000000, 
 [$t4] = 00000000, [$t5] = 00000000, [$t6] = 00000000, 
 [$t7] = 00000000, [$t8] = 00000000, [$t9] = 00000000 

Time:       2800, CLK = 0, PC = 00000040, 
 [$s0] = 00000037, [$s1] = 00000037, [$s2] = 00000037, 
 [$s3] = 00000020, [$s4] = 00000001, [$s5] = 00000000, 
 [$s6] = 00000000, [$s7] = 00000000, [$t0] = 00000020, 
 [$t1] = 00000037, [$t2] = 00000000, [$t3] = 00000000, 
 [$t4] = 00000000, [$t5] = 00000000, [$t6] = 00000000, 
 [$t7] = 00000000, [$t8] = 00000000, [$t9] = 00000000 

Time:       2850, CLK = 1, PC = 00000040, 
 [$s0] = 00000037, [$s1] = 00000037, [$s2] = 00000037, 
 [$s3] = 00000020, [$s4] = 00000001, [$s5] = 00000000, 
 [$s6] = 00000000, [$s7] = 00000000, [$t0] = 00000020, 
 [$t1] = 00000037, [$t2] = 00000000, [$t3] = 00000000, 
 [$t4] = 00000000, [$t5] = 00000000, [$t6] = 00000000, 
 [$t7] = 00000000, [$t8] = 00000000, [$t9] = 00000000 

Time:       2900, CLK = 0, PC = 00000040, 
 [$s0] = 00000037, [$s1] = 00000037, [$s2] = 00000037, 
 [$s3] = 00000020, [$s4] = 00000001, [$s5] = 00000000, 
 [$s6] = 00000000, [$s7] = 00000000, [$t0] = 00000020, 
 [$t1] = 00000037, [$t2] = 00000000, [$t3] = 00000000, 
 [$t4] = 00000000, [$t5] = 00000000, [$t6] = 00000000, 
 [$t7] = 00000000, [$t8] = 00000000, [$t9] = 00000000 

Time:       2950, CLK = 1, PC = 0000007c, 
 [$s0] = 00000037, [$s1] = 00000037, [$s2] = 00000037, 
 [$s3] = 00000020, [$s4] = 00000000, [$s5] = 00000000, 
 [$s6] = 00000000, [$s7] = 00000000, [$t0] = 00000020, 
 [$t1] = 00000037, [$t2] = 00000000, [$t3] = 00000000, 
 [$t4] = 00000000, [$t5] = 00000000, [$t6] = 00000000, 
 [$t7] = 00000000, [$t8] = 00000000, [$t9] = 00000000 

Time:       3000, CLK = 0, PC = 0000007c, 
 [$s0] = 00000037, [$s1] = 00000037, [$s2] = 00000037, 
 [$s3] = 00000020, [$s4] = 00000000, [$s5] = 00000000, 
 [$s6] = 00000000, [$s7] = 00000000, [$t0] = 00000020, 
 [$t1] = 00000037, [$t2] = 00000000, [$t3] = 00000000, 
 [$t4] = 00000000, [$t5] = 00000000, [$t6] = 00000000, 
 [$t7] = 00000000, [$t8] = 00000000, [$t9] = 00000000 

Time:       3050, CLK = 1, PC = 00000080, 
 [$s0] = 00000037, [$s1] = 00000037, [$s2] = 00000037, 
 [$s3] = 00000020, [$s4] = 00000000, [$s5] = 00000000, 
 [$s6] = 00000000, [$s7] = 00000000, [$t0] = 00000020, 
 [$t1] = 00000037, [$t2] = 00000000, [$t3] = 00000000, 
 [$t4] = 00000000, [$t5] = 00000000, [$t6] = 00000000, 
 [$t7] = 00000000, [$t8] = 00000000, [$t9] = 00000000 

Time:       3100, CLK = 0, PC = 00000080, 
 [$s0] = 00000037, [$s1] = 00000037, [$s2] = 00000037, 
 [$s3] = 00000020, [$s4] = 00000000, [$s5] = 00000000, 
